{"name":"test002","id":"com.req.res.reqresuserinfo.ReqresCRUDTest:test002","testCaseName":"com.req.res.reqresuserinfo.ReqresCRUDTest","testSteps":[{"number":1,"description":"GET https://reqres.in/api/users?page\u003d2\r\r","duration":1,"startTime":"2020-05-19T22:51:18.960+01:00[Europe/London]","result":"SUCCESS","restQuery":{"method":"GET","path":"https://reqres.in/api/users?page\u003d2\r\r","content":"\r","contentType":"application/json","requestHeaders":"Accept\u003d*/*\r\n\t\t\t\tContent-Type\u003dapplication/json; charset\u003dUTF-8\r\r","requestCookies":"\r\r","responseHeaders":"Date: Tue, 19 May 2020 21:51:18 GMT\nContent-Type: application/json; charset\u003dutf-8\nTransfer-Encoding: chunked\nConnection: keep-alive\nSet-Cookie: __cfduid\u003dd669e4bbcbe860843676c3ba27901cd9c1589925078; expires\u003dThu, 18-Jun-20 21:51:18 GMT; path\u003d/; domain\u003d.reqres.in; HttpOnly; SameSite\u003dLax; Secure\nX-Powered-By: Express\nAccess-Control-Allow-Origin: *\nEtag: W/\"4dd-IPv5LdOOb6s5S9E3i59wBCJ1k/0\"\nVia: 1.1 vegur\nCache-Control: max-age\u003d14400\nCF-Cache-Status: HIT\nAge: 7115\nExpect-CT: max-age\u003d604800, report-uri\u003d\"https://report-uri.cloudflare.com/cdn-cgi/beacon/expect-ct\"\nVary: Accept-Encoding\nServer: cloudflare\nCF-RAY: 596109dc2fae0726-LHR\nContent-Encoding: gzip\ncf-request-id: 02d0847d9900000726182d5200000001\r","responseCookies":"__cfduid\u003dd669e4bbcbe860843676c3ba27901cd9c1589925078;Path\u003d/;Domain\u003d.reqres.in;Secure;HttpOnly;Expires\u003d18/06/20 21:51\r","responseBody":"{\n    \"page\": 2,\n    \"per_page\": 6,\n    \"total\": 12,\n    \"total_pages\": 2,\n    \"data\": [\n        {\n            \"id\": 7,\n            \"email\": \"michael.lawson@reqres.in\",\n            \"first_name\": \"Michael\",\n            \"last_name\": \"Lawson\",\n            \"avatar\": \"https://s3.amazonaws.com/uifaces/faces/twitter/follettkyle/128.jpg\"\n        },\n        {\n            \"id\": 8,\n            \"email\": \"lindsay.ferguson@reqres.in\",\n            \"first_name\": \"Lindsay\",\n            \"last_name\": \"Ferguson\",\n            \"avatar\": \"https://s3.amazonaws.com/uifaces/faces/twitter/araa3185/128.jpg\"\n        },\n        {\n            \"id\": 9,\n            \"email\": \"tobias.funke@reqres.in\",\n            \"first_name\": \"Tobias\",\n            \"last_name\": \"Funke\",\n            \"avatar\": \"https://s3.amazonaws.com/uifaces/faces/twitter/vivekprvr/128.jpg\"\n        },\n        {\n            \"id\": 10,\n            \"email\": \"byron.fields@reqres.in\",\n            \"first_name\": \"Byron\",\n            \"last_name\": \"Fields\",\n            \"avatar\": \"https://s3.amazonaws.com/uifaces/faces/twitter/russoedu/128.jpg\"\n        },\n        {\n            \"id\": 11,\n            \"email\": \"george.edwards@reqres.in\",\n            \"first_name\": \"George\",\n            \"last_name\": \"Edwards\",\n            \"avatar\": \"https://s3.amazonaws.com/uifaces/faces/twitter/mrmoiree/128.jpg\"\n        },\n        {\n            \"id\": 12,\n            \"email\": \"rachel.howell@reqres.in\",\n            \"first_name\": \"Rachel\",\n            \"last_name\": \"Howell\",\n            \"avatar\": \"https://s3.amazonaws.com/uifaces/faces/twitter/hebertialmeida/128.jpg\"\n        }\n    ],\n    \"ad\": {\n        \"company\": \"StatusCode Weekly\",\n        \"url\": \"http://statuscode.org/\",\n        \"text\": \"A weekly newsletter focusing on software development, infrastructure, the server, performance, and the stack end of things.\"\n    }\n}","statusCode":200},"precondition":false}],"userStory":{"id":"com.req.res.reqresuserinfo.ReqresCRUDTest","storyName":"Reqres CRUD test","storyClassName":"com.req.res.reqresuserinfo.ReqresCRUDTest","path":"com.req.res.reqresuserinfo","type":"story"},"featureTag":{"name":"Reqresuserinfo/Reqres CRUD test","type":"story"},"title":"Getting User from the record","tags":[{"name":"Reqresuserinfo","type":"feature"},{"name":"Reqresuserinfo/Reqres CRUD test","type":"story"}],"startTime":"2020-05-19T22:51:18.149+01:00[Europe/London]","duration":951,"projectKey":"","manual":false,"testSource":"JUnit","result":"SUCCESS"}